{
	"logNotice":"TestConfig",
	"public":{"testLogin":true},
	"private": {
		"oAuth": {
		  "google": {
			"clientId": "1001942397873-3pl3rsrc3u7prbfkcf0umdbpiercgfgg.apps.googleusercontent.com",
			"secret": "ZxxwLWdZkyFZ1O46cL-G1HTb",
			"loginStyle": "redirect"
		  },
		  "facebook": {
			"appId": "161271137763813",
			"secret": "609c9e25a77b65648035e4860b71c3e9",
			"loginStyle": "popup"
		  }      
		}
	}
	"owner":"fernando.heb@gmail.com",
	"initRoles":{"admins":["fernando.heb@gmail.com"],
	"teachers":["fernando.heb@gmail.com"]

	
}	
	 


